%TF.GenerationSoftware,KiCad,Pcbnew,7.0.2*%
%TF.CreationDate,2023-07-11T16:17:37+02:00*%
%TF.ProjectId,FreiburgTimingBoard,46726569-6275-4726-9754-696d696e6742,rev?*%
%TF.SameCoordinates,Original*%
%TF.FileFunction,Paste,Top*%
%TF.FilePolarity,Positive*%
%FSLAX46Y46*%
G04 Gerber Fmt 4.6, Leading zero omitted, Abs format (unit mm)*
G04 Created by KiCad (PCBNEW 7.0.2) date 2023-07-11 16:17:37*
%MOMM*%
%LPD*%
G01*
G04 APERTURE LIST*
G04 Aperture macros list*
%AMRoundRect*
0 Rectangle with rounded corners*
0 $1 Rounding radius*
0 $2 $3 $4 $5 $6 $7 $8 $9 X,Y pos of 4 corners*
0 Add a 4 corners polygon primitive as box body*
4,1,4,$2,$3,$4,$5,$6,$7,$8,$9,$2,$3,0*
0 Add four circle primitives for the rounded corners*
1,1,$1+$1,$2,$3*
1,1,$1+$1,$4,$5*
1,1,$1+$1,$6,$7*
1,1,$1+$1,$8,$9*
0 Add four rect primitives between the rounded corners*
20,1,$1+$1,$2,$3,$4,$5,0*
20,1,$1+$1,$4,$5,$6,$7,0*
20,1,$1+$1,$6,$7,$8,$9,0*
20,1,$1+$1,$8,$9,$2,$3,0*%
G04 Aperture macros list end*
%ADD10C,0.128000*%
%ADD11RoundRect,0.375000X-0.375000X-1.125000X0.375000X-1.125000X0.375000X1.125000X-0.375000X1.125000X0*%
%ADD12R,1.000000X1.050000*%
%ADD13R,1.050000X2.200000*%
%ADD14R,2.000000X1.500000*%
%ADD15R,2.000000X3.800000*%
%ADD16RoundRect,0.150000X0.150000X-0.512500X0.150000X0.512500X-0.150000X0.512500X-0.150000X-0.512500X0*%
%ADD17RoundRect,0.225000X0.250000X-0.225000X0.250000X0.225000X-0.250000X0.225000X-0.250000X-0.225000X0*%
%ADD18RoundRect,0.225000X0.225000X0.250000X-0.225000X0.250000X-0.225000X-0.250000X0.225000X-0.250000X0*%
%ADD19RoundRect,0.212500X-0.737500X0.212500X-0.737500X-0.212500X0.737500X-0.212500X0.737500X0.212500X0*%
%ADD20RoundRect,0.250000X-0.850000X0.250000X-0.850000X-0.250000X0.850000X-0.250000X0.850000X0.250000X0*%
%ADD21RoundRect,0.250000X-0.625000X0.312500X-0.625000X-0.312500X0.625000X-0.312500X0.625000X0.312500X0*%
%ADD22RoundRect,0.250000X0.325000X1.100000X-0.325000X1.100000X-0.325000X-1.100000X0.325000X-1.100000X0*%
%ADD23R,0.650000X0.400000*%
%ADD24RoundRect,0.200000X0.275000X-0.200000X0.275000X0.200000X-0.275000X0.200000X-0.275000X-0.200000X0*%
%ADD25RoundRect,0.079500X-0.100500X0.079500X-0.100500X-0.079500X0.100500X-0.079500X0.100500X0.079500X0*%
%ADD26RoundRect,0.079500X0.079500X0.100500X-0.079500X0.100500X-0.079500X-0.100500X0.079500X-0.100500X0*%
%ADD27RoundRect,0.079500X0.100500X-0.079500X0.100500X0.079500X-0.100500X0.079500X-0.100500X-0.079500X0*%
%ADD28RoundRect,0.218750X-0.381250X0.218750X-0.381250X-0.218750X0.381250X-0.218750X0.381250X0.218750X0*%
%ADD29RoundRect,0.218750X0.381250X-0.218750X0.381250X0.218750X-0.381250X0.218750X-0.381250X-0.218750X0*%
%ADD30RoundRect,0.140000X0.170000X-0.140000X0.170000X0.140000X-0.170000X0.140000X-0.170000X-0.140000X0*%
%ADD31RoundRect,0.140000X0.140000X0.170000X-0.140000X0.170000X-0.140000X-0.170000X0.140000X-0.170000X0*%
%ADD32RoundRect,0.079500X-0.079500X-0.100500X0.079500X-0.100500X0.079500X0.100500X-0.079500X0.100500X0*%
G04 APERTURE END LIST*
%TO.C,D8*%
D10*
X119571000Y-103290000D02*
G75*
G03*
X119571000Y-103290000I-64000J0D01*
G01*
X119987000Y-103290000D02*
G75*
G03*
X119987000Y-103290000I-64000J0D01*
G01*
%TO.C,D7*%
X119171000Y-102690000D02*
G75*
G03*
X119171000Y-102690000I-64000J0D01*
G01*
X119587000Y-102690000D02*
G75*
G03*
X119587000Y-102690000I-64000J0D01*
G01*
%TO.C,D6*%
X112921000Y-103340000D02*
G75*
G03*
X112921000Y-103340000I-64000J0D01*
G01*
X113337000Y-103340000D02*
G75*
G03*
X113337000Y-103340000I-64000J0D01*
G01*
%TO.C,D5*%
X112521000Y-102740000D02*
G75*
G03*
X112521000Y-102740000I-64000J0D01*
G01*
X112937000Y-102740000D02*
G75*
G03*
X112937000Y-102740000I-64000J0D01*
G01*
%TO.C,D4*%
X106301000Y-103280000D02*
G75*
G03*
X106301000Y-103280000I-64000J0D01*
G01*
X106717000Y-103280000D02*
G75*
G03*
X106717000Y-103280000I-64000J0D01*
G01*
%TO.C,D3*%
X105898500Y-102680000D02*
G75*
G03*
X105898500Y-102680000I-64000J0D01*
G01*
X106314500Y-102680000D02*
G75*
G03*
X106314500Y-102680000I-64000J0D01*
G01*
%TO.C,D2*%
X99992000Y-103297500D02*
G75*
G03*
X99992000Y-103297500I-64000J0D01*
G01*
X99576000Y-103297500D02*
G75*
G03*
X99576000Y-103297500I-64000J0D01*
G01*
%TO.C,D1*%
X99592000Y-102697500D02*
G75*
G03*
X99592000Y-102697500I-64000J0D01*
G01*
X99176000Y-102697500D02*
G75*
G03*
X99176000Y-102697500I-64000J0D01*
G01*
%TD*%
D11*
%TO.C,J6*%
X92595000Y-128650000D03*
X93865000Y-133150000D03*
X95135000Y-128650000D03*
X96405000Y-133150000D03*
%TD*%
D12*
%TO.C,J7*%
X127075000Y-105775000D03*
D13*
X125600000Y-107300000D03*
X128550000Y-107300000D03*
%TD*%
D14*
%TO.C,U6*%
X103400000Y-121700000D03*
D15*
X109700000Y-124000000D03*
D14*
X103400000Y-124000000D03*
X103400000Y-126300000D03*
%TD*%
D16*
%TO.C,U5*%
X94100000Y-123200000D03*
X96000000Y-123200000D03*
X96000000Y-125475000D03*
X95050000Y-125475000D03*
X94100000Y-125475000D03*
%TD*%
D17*
%TO.C,C41*%
X101300000Y-121900000D03*
X101300000Y-123450000D03*
%TD*%
D18*
%TO.C,C40*%
X92575000Y-123000000D03*
X91025000Y-123000000D03*
%TD*%
%TO.C,C39*%
X92575000Y-125600000D03*
X91025000Y-125600000D03*
%TD*%
D19*
%TO.C,J5*%
X116650000Y-138325000D03*
X116650000Y-131475000D03*
D20*
X125400000Y-138150000D03*
X125400000Y-131650000D03*
%TD*%
D21*
%TO.C,R26*%
X127330000Y-123640000D03*
X127330000Y-120715000D03*
%TD*%
%TO.C,R25*%
X127270000Y-128770000D03*
X127270000Y-125845000D03*
%TD*%
D22*
%TO.C,C38*%
X122005000Y-121447500D03*
X124955000Y-121447500D03*
%TD*%
%TO.C,C37*%
X122030000Y-125827500D03*
X124980000Y-125827500D03*
%TD*%
D23*
%TO.C,U4*%
X119505000Y-109960000D03*
X119505000Y-110610000D03*
X119505000Y-111260000D03*
X121405000Y-111260000D03*
X121405000Y-110610000D03*
X121405000Y-109960000D03*
%TD*%
%TO.C,U3*%
X112875000Y-110000000D03*
X112875000Y-110650000D03*
X112875000Y-111300000D03*
X114775000Y-111300000D03*
X114775000Y-110650000D03*
X114775000Y-110000000D03*
%TD*%
%TO.C,U2*%
X106235000Y-109960000D03*
X106235000Y-110610000D03*
X106235000Y-111260000D03*
X108135000Y-111260000D03*
X108135000Y-110610000D03*
X108135000Y-109960000D03*
%TD*%
D24*
%TO.C,R24*%
X122905000Y-112035000D03*
X122905000Y-110385000D03*
%TD*%
D25*
%TO.C,R23*%
X122415000Y-104745000D03*
X122415000Y-105435000D03*
%TD*%
D26*
%TO.C,R22*%
X121620000Y-104650000D03*
X120930000Y-104650000D03*
%TD*%
D27*
%TO.C,R21*%
X120925000Y-103945000D03*
X120925000Y-103255000D03*
%TD*%
D24*
%TO.C,R20*%
X122905000Y-115000000D03*
X122905000Y-113350000D03*
%TD*%
D26*
%TO.C,R19*%
X119540000Y-102040000D03*
X118850000Y-102040000D03*
%TD*%
D24*
%TO.C,R18*%
X116415000Y-112130000D03*
X116415000Y-110480000D03*
%TD*%
D25*
%TO.C,R17*%
X115765000Y-104835000D03*
X115765000Y-105525000D03*
%TD*%
D26*
%TO.C,R16*%
X114960000Y-104700000D03*
X114270000Y-104700000D03*
%TD*%
D27*
%TO.C,R15*%
X114265000Y-103995000D03*
X114265000Y-103305000D03*
%TD*%
D24*
%TO.C,R14*%
X116265000Y-115095000D03*
X116265000Y-113445000D03*
%TD*%
D26*
%TO.C,R13*%
X112895000Y-102080000D03*
X112205000Y-102080000D03*
%TD*%
D24*
%TO.C,R12*%
X109645000Y-112080000D03*
X109645000Y-110430000D03*
%TD*%
D25*
%TO.C,R11*%
X109145000Y-104675000D03*
X109145000Y-105365000D03*
%TD*%
D26*
%TO.C,R10*%
X108340000Y-104640000D03*
X107650000Y-104640000D03*
%TD*%
D27*
%TO.C,R9*%
X107680000Y-103930000D03*
X107680000Y-103240000D03*
%TD*%
D24*
%TO.C,R8*%
X109645000Y-115040000D03*
X109645000Y-113390000D03*
%TD*%
D26*
%TO.C,R7*%
X105580000Y-102020000D03*
X106270000Y-102020000D03*
%TD*%
D23*
%TO.C,Q4*%
X119515000Y-105750000D03*
X119515000Y-107050000D03*
X121415000Y-107050000D03*
X121415000Y-105750000D03*
%TD*%
%TO.C,Q3*%
X112865000Y-105800000D03*
X112865000Y-107100000D03*
X114765000Y-107100000D03*
X114765000Y-105800000D03*
%TD*%
%TO.C,Q2*%
X106245000Y-105740000D03*
X106245000Y-107040000D03*
X108145000Y-107040000D03*
X108145000Y-105740000D03*
%TD*%
D28*
%TO.C,L8*%
X118005000Y-106707500D03*
X118005000Y-108832500D03*
%TD*%
D29*
%TO.C,L7*%
X122940000Y-109042500D03*
X122940000Y-106917500D03*
%TD*%
D28*
%TO.C,L6*%
X111365000Y-106495000D03*
X111365000Y-108620000D03*
%TD*%
D29*
%TO.C,L5*%
X116305000Y-109120000D03*
X116305000Y-106995000D03*
%TD*%
D28*
%TO.C,L4*%
X104715000Y-106765000D03*
X104715000Y-108890000D03*
%TD*%
D29*
%TO.C,L3*%
X109665000Y-109082500D03*
X109665000Y-106957500D03*
%TD*%
D25*
%TO.C,C36*%
X119515000Y-112365000D03*
X119515000Y-113055000D03*
%TD*%
D30*
%TO.C,C35*%
X117620000Y-109950000D03*
X117620000Y-110910000D03*
%TD*%
D27*
%TO.C,C34*%
X118505000Y-109925000D03*
X118505000Y-110615000D03*
%TD*%
D31*
%TO.C,C33*%
X120245000Y-108750000D03*
X119285000Y-108750000D03*
%TD*%
D25*
%TO.C,C32*%
X121415000Y-108155000D03*
X121415000Y-108845000D03*
%TD*%
%TO.C,C31*%
X123115000Y-104755000D03*
X123115000Y-105445000D03*
%TD*%
%TO.C,C30*%
X120225000Y-104645000D03*
X120225000Y-103955000D03*
%TD*%
D32*
%TO.C,C29*%
X121815000Y-112360000D03*
X121125000Y-112360000D03*
%TD*%
D25*
%TO.C,C28*%
X119525000Y-103945000D03*
X119525000Y-104635000D03*
%TD*%
%TO.C,C27*%
X112875000Y-112405000D03*
X112875000Y-113095000D03*
%TD*%
D30*
%TO.C,C26*%
X110980000Y-110905000D03*
X110980000Y-109945000D03*
%TD*%
D27*
%TO.C,C25*%
X111875000Y-110615000D03*
X111875000Y-109925000D03*
%TD*%
D31*
%TO.C,C24*%
X113605000Y-108790000D03*
X112645000Y-108790000D03*
%TD*%
D25*
%TO.C,C23*%
X114765000Y-108205000D03*
X114765000Y-108895000D03*
%TD*%
%TO.C,C22*%
X116465000Y-104835000D03*
X116465000Y-105525000D03*
%TD*%
%TO.C,C21*%
X113565000Y-104000000D03*
X113565000Y-104690000D03*
%TD*%
D32*
%TO.C,C20*%
X114490000Y-112400000D03*
X115180000Y-112400000D03*
%TD*%
D25*
%TO.C,C19*%
X112865000Y-104000000D03*
X112865000Y-104690000D03*
%TD*%
%TO.C,C18*%
X106225000Y-112365000D03*
X106225000Y-113055000D03*
%TD*%
D30*
%TO.C,C17*%
X104330000Y-110970000D03*
X104330000Y-110010000D03*
%TD*%
D27*
%TO.C,C16*%
X105235000Y-110630000D03*
X105235000Y-109940000D03*
%TD*%
D31*
%TO.C,C15*%
X106955000Y-108750000D03*
X105995000Y-108750000D03*
%TD*%
D25*
%TO.C,C14*%
X108145000Y-108150000D03*
X108145000Y-108840000D03*
%TD*%
%TO.C,C13*%
X109845000Y-104680000D03*
X109845000Y-105370000D03*
%TD*%
%TO.C,C12*%
X106945000Y-103935000D03*
X106945000Y-104625000D03*
%TD*%
D32*
%TO.C,C6*%
X107860000Y-112380000D03*
X108550000Y-112380000D03*
%TD*%
D25*
%TO.C,C5*%
X106245000Y-103935000D03*
X106245000Y-104625000D03*
%TD*%
D27*
%TO.C,R2*%
X100920000Y-103227500D03*
X100920000Y-103917500D03*
%TD*%
D25*
%TO.C,C2*%
X100220000Y-104642500D03*
X100220000Y-103952500D03*
%TD*%
D27*
%TO.C,C9*%
X98445000Y-110567500D03*
X98445000Y-109877500D03*
%TD*%
D28*
%TO.C,L2*%
X97665000Y-106667500D03*
X97665000Y-108792500D03*
%TD*%
D25*
%TO.C,C8*%
X99470000Y-112352500D03*
X99470000Y-113042500D03*
%TD*%
%TO.C,C3*%
X102420000Y-104627500D03*
X102420000Y-105317500D03*
%TD*%
D32*
%TO.C,C4*%
X101125000Y-112397500D03*
X101815000Y-112397500D03*
%TD*%
D24*
%TO.C,R5*%
X102920000Y-111810000D03*
X102920000Y-110160000D03*
%TD*%
%TO.C,R6*%
X102915000Y-114775000D03*
X102915000Y-113125000D03*
%TD*%
D26*
%TO.C,R3*%
X101615000Y-104622500D03*
X100925000Y-104622500D03*
%TD*%
D25*
%TO.C,C1*%
X99520000Y-103952500D03*
X99520000Y-104642500D03*
%TD*%
D30*
%TO.C,C11*%
X97560000Y-109910000D03*
X97560000Y-110870000D03*
%TD*%
D31*
%TO.C,C10*%
X99905000Y-108732500D03*
X98945000Y-108732500D03*
%TD*%
D29*
%TO.C,L1*%
X102935000Y-108815000D03*
X102935000Y-106690000D03*
%TD*%
D25*
%TO.C,C7*%
X101420000Y-108152500D03*
X101420000Y-108842500D03*
%TD*%
D23*
%TO.C,U1*%
X99495000Y-109947500D03*
X99495000Y-110597500D03*
X99495000Y-111247500D03*
X101395000Y-111247500D03*
X101395000Y-110597500D03*
X101395000Y-109947500D03*
%TD*%
D26*
%TO.C,R1*%
X99565000Y-102022500D03*
X98875000Y-102022500D03*
%TD*%
D23*
%TO.C,Q1*%
X99520000Y-105747500D03*
X99520000Y-107047500D03*
X101420000Y-107047500D03*
X101420000Y-105747500D03*
%TD*%
D25*
%TO.C,R4*%
X103120000Y-104627500D03*
X103120000Y-105317500D03*
%TD*%
M02*
